Experiment_1/Codes/simulation/qsim/schematic_comb.msim.vcd
$comment
	File created using the following command:
		vcd file schematic_comb.msim.vcd -direction
$end
$date
	Sat Jul 31 12:29:23 2021
$end
$version
	ModelSim Version 10.1d
$end
$timescale
	1ps
$end
$scope module top_module_vlg_vec_tst $end
$var reg 1 ! A_00 $end
$var reg 1 " A_01 $end
$var reg 1 # A_02 $end
$var reg 1 $ A_03 $end
$var reg 1 % A_10 $end
$var reg 1 & A_11 $end
$var reg 1 ' A_12 $end
$var reg 1 ( A_13 $end
$var reg 1 ) A_20 $end
$var reg 1 * A_21 $end
$var reg 1 + A_22 $end
$var reg 1 , A_23 $end
$var reg 1 - A_30 $end
$var reg 1 . A_31 $end
$var reg 1 / A_32 $end
$var reg 1 0 A_33 $end
$var reg 1 1 div_11 $end
$var wire 1 2 divisible $end
$var wire 1 3 sampler $end
$scope module i1 $end
$var wire 1 4 gnd $end
$var wire 1 5 vcc $end
$var wire 1 6 unknown $end
$var tri1 1 7 devclrn $end
$var tri1 1 8 devpor $end
$var tri1 1 9 devoe $end
$var wire 1 : inst2|inst|inst2~combout $end
$var wire 1 ; inst2|inst2|inst2~0_combout $end
$var wire 1 < inst1|inst4|inst2~0_combout $end
$var wire 1 = inst4|inst7|inst2~0_combout $end
$var wire 1 > inst4|inst7|inst2~1_combout $end
$var wire 1 ? inst4|inst7|inst2~2_combout $end
$var wire 1 @ inst4|inst7|inst2~3_combout $end
$var wire 1 A inst2|inst7~0_combout $end
$var wire 1 B A_13~input_o $end
$var wire 1 C divisible~output_o $end
$var wire 1 D A_10~input_o $end
$var wire 1 E A_11~input_o $end
$var wire 1 F A_31~input_o $end
$var wire 1 G inst2|inst6~0_combout $end
$var wire 1 H A_00~input_o $end
$var wire 1 I A_01~input_o $end
$var wire 1 J A_21~input_o $end
$var wire 1 K inst|inst2|inst4~0_combout $end
$var wire 1 L inst2|inst2|inst3~combout $end
$var wire 1 M A_02~input_o $end
$var wire 1 N A_22~input_o $end
$var wire 1 O inst|inst3|inst3~0_combout $end
$var wire 1 P A_12~input_o $end
$var wire 1 Q A_32~input_o $end
$var wire 1 R inst1|inst2|inst2~0_combout $end
$var wire 1 S inst2|inst7~combout $end
$var wire 1 T div_11~input_o $end
$var wire 1 U inst2|inst2|inst2~1_combout $end
$var wire 1 V inst2|inst2|inst2~2_combout $end
$var wire 1 W inst2|inst2|inst2~3_combout $end
$var wire 1 X inst2|inst2|inst2~4_combout $end
$var wire 1 Y inst5|inst2~0_combout $end
$var wire 1 Z A_33~input_o $end
$var wire 1 [ inst2|inst8~2_combout $end
$var wire 1 \ inst2|inst8~3_combout $end
$var wire 1 ] inst|inst2|inst2~0_combout $end
$var wire 1 ^ inst|inst3|inst2~0_combout $end
$var wire 1 _ A_03~input_o $end
$var wire 1 ` A_23~input_o $end
$var wire 1 a inst|inst4|inst3~0_combout $end
$var wire 1 b inst5|inst2~1_combout $end
$var wire 1 c inst5|inst2~2_combout $end
$var wire 1 d inst2|inst3|inst4~combout $end
$var wire 1 e A_20~input_o $end
$var wire 1 f inst2|inst|inst4~0_combout $end
$var wire 1 g inst|inst4|inst2~0_combout $end
$var wire 1 h inst2|inst8~combout $end
$var wire 1 i inst2|inst4|inst2~0_combout $end
$var wire 1 j inst2|inst5|inst4~0_combout $end
$var wire 1 k inst5|inst2~3_combout $end
$var wire 1 l inst2|inst5|inst2~0_combout $end
$var wire 1 m inst2|inst4|inst4~combout $end
$var wire 1 n inst4|inst8~0_combout $end
$var wire 1 o A_30~input_o $end
$var wire 1 p inst|inst|inst3~0_combout $end
$var wire 1 q inst2|inst|inst3~combout $end
$var wire 1 r inst4|inst5~0_combout $end
$var wire 1 s inst2|inst3|inst4~0_combout $end
$var wire 1 t inst4|inst4|inst2~0_combout $end
$var wire 1 u inst5|inst2~4_combout $end
$var wire 1 v inst5|inst2~5_combout $end
$upscope $end
$upscope $end
$enddefinitions $end
#0
$dumpvars
1!
1"
0#
0$
0%
0&
0'
0(
0)
0*
0+
0,
0-
0.
0/
00
01
12
x3
04
15
x6
17
18
19
0:
0;
0<
0=
0>
0?
1@
0A
0B
1C
0D
0E
0F
0G
1H
1I
0J
1K
1L
0M
0N
0O
0P
0Q
0R
0S
0T
1U
0V
0W
0X
0Y
0Z
0[
0\
0]
0^
0_
0`
0a
0b
0c
0d
0e
1f
0g
0h
0i
0j
0k
0l
0m
0n
0o
1p
1q
0r
0s
1t
1u
1v
$end
#1000000
1&
0"
1E
0I
03
1G
1;
0K
1?
0@
1@
0u
1u
0v
0C
02
1v
1C
12
#2000000
1'
0!
0&
1"
1P
0H
0E
1I
13
1S
1A
0p
0f
0U
1K
0G
0;
1d
0q
0?
0@
1@
0u
1u
0v
0C
02
1v
1C
12
#3000000
1)
11
0'
1!
1&
0"
1e
1T
0P
1H
1E
0I
03
1r
1q
1h
1b
1W
0L
1?
1:
0A
1G
1;
0v
0u
1m
1X
0@
0t
1L
0?
0C
02
1s
0d
1Y
1@
1t
0r
0m
1i
1c
1=
1u
1l
1j
0@
1@
0t
1k
0u
1v
1C
12
#4000000
1-
1+
1*
1$
0)
1'
0!
0&
1o
1N
1J
1_
0e
1P
0H
0E
13
0q
1f
0W
1V
0G
1>
0:
0s
1O
1a
0S
1A
0;
1t
0k
0L
1n
0c
1m
0b
0=
0@
0v
0C
02
#5000000
1%
1#
0-
0$
0'
1!
1D
1M
0o
0_
0P
1H
03
0f
1s
1^
0O
0a
1S
0A
1p
1U
0t
1k
1q
1?
1:
1W
0V
1@
1u
#6000000
1/
01
1"
0*
1)
1&
0%
0#
1'
0!
1Q
0T
1I
0J
1e
1E
0D
0M
1P
0H
13
1[
0S
1r
0l
0k
0h
1b
0W
1L
0:
1f
1G
1;
0>
0s
0^
1O
1v
1h
1\
0u
0@
0i
0L
0b
1=
1C
12
0m
1i
1b
0=
1u
0j
0n
1@
0v
1j
1c
0@
1t
0r
0u
0C
02
1v
0t
1r
1C
12
0v
0C
02
#7000000
0+
0/
0"
0)
0&
0'
0N
0Q
0I
0e
0E
0P
03
1s
0O
0[
0K
0p
0f
0U
0G
0;
1d
0Y
0h
0\
0X
1@
0q
0?
0i
0c
0b
0s
0d
0@
0j
1c
1t
0r
0t
1u
1v
1C
12
